,date,city,rent,product
0,2018-01-01,Batman,17,1455
1,2018-01-02,Tokat,7,1363
2,2018-01-03,Zonguldak,8,1255
3,2018-01-04,Trabzon,13,1346
4,2018-01-05,Kocaeli,5,1497
5,2018-01-06,Afyon,15,1674
6,2018-01-07,Nevşehir,17,1886
7,2018-01-08,Şırnak,13,1724
8,2018-01-09,Artvin,13,1734
9,2018-01-10,Balıkesir,1,1448
10,2018-01-11,Zonguldak,8,1985
11,2018-01-12,Osmaniye,2,1874
12,2018-01-13,Düzce,10,1220
13,2018-01-14,Tokat,3,1000
14,2018-01-15,Bolu,16,1719
15,2018-01-16,Erzincan,13,1208
16,2018-01-17,Erzurum,4,1636
17,2018-01-18,Adana,17,1882
18,2018-01-19,Tekirdağ,17,1534
19,2018-01-20,Muş,1,1344
20,2018-01-21,Osmaniye,15,1870
21,2018-01-22,Rize,11,1299
22,2018-01-23,Aksaray,13,1294
23,2018-01-24,Samsun,2,1941
24,2018-01-25,Kırşehir,13,1613
25,2018-01-26,Tokat,3,1232
26,2018-01-27,Kırklareli,1,1935
27,2018-01-28,Gümüşhane,11,1414
28,2018-01-29,Kayseri,1,1778
29,2018-01-30,Erzurum,3,1947
30,2018-01-31,Adana,8,1859
31,2018-02-01,Sakarya,13,1695
32,2018-02-02,Bayburt,4,1177
33,2018-02-03,Çanakkale,7,1535
34,2018-02-04,Isparta,10,1827
35,2018-02-05,Bilecik,3,1791
36,2018-02-06,Bursa,14,1720
37,2018-02-07,Ankara,8,1825
38,2018-02-08,Gaziantep,7,1950
39,2018-02-09,Kırklareli,13,1620
40,2018-02-10,Aydın,14,1694
41,2018-02-11,Muğla,8,1172
42,2018-02-12,Van,11,1776
43,2018-02-13,Tunceli,1,1057
44,2018-02-14,Kilis,2,1151
45,2018-02-15,Giresun,16,1979
46,2018-02-16,Gümüşhane,5,1797
47,2018-02-17,Sivas,5,1267
48,2018-02-18,Eskişehir,16,1352
49,2018-02-19,Elazığ,10,1744
50,2018-02-20,Siirt,14,1171
51,2018-02-21,Ankara,7,1753
52,2018-02-22,Aksaray,2,1197
53,2018-02-23,Giresun,17,1962
54,2018-02-24,Çorum,17,1888
55,2018-02-25,Kırıkkale,8,1803
56,2018-02-26,Artvin,9,1203
57,2018-02-27,Sinop,16,1579
58,2018-02-28,Kars,15,1899
59,2018-03-01,Diyarbakır,14,1203
60,2018-03-02,Muş,14,1872
61,2018-03-03,Rize,10,1056
62,2018-03-04,Bolu,1,1840
63,2018-03-05,Sivas,13,1312
64,2018-03-06,Samsun,13,1208
65,2018-03-07,Sinop,1,1485
66,2018-03-08,Adana,15,1731
67,2018-03-09,Kayseri,14,1027
68,2018-03-10,Artvin,4,1802
69,2018-03-11,Erzincan,8,1130
70,2018-03-12,Gümüşhane,6,1299
71,2018-03-13,Eskişehir,3,1524
72,2018-03-14,Bilecik,1,1157
73,2018-03-15,Hakkari,11,1606
74,2018-03-16,Çanakkale,15,1952
75,2018-03-17,Bursa,16,1746
76,2018-03-18,Bayburt,5,1289
77,2018-03-19,Siirt,11,1432
78,2018-03-20,İstanbul,3,1558
79,2018-03-21,Gümüşhane,1,1954
80,2018-03-22,Hakkari,15,1753
81,2018-03-23,Malatya,9,1195
82,2018-03-24,Burdur,11,1177
83,2018-03-25,Tekirdağ,6,1393
84,2018-03-26,Muğla,2,1620
85,2018-03-27,Gaziantep,15,1274
86,2018-03-28,Rize,11,1752
87,2018-03-29,İstanbul,2,1105
88,2018-03-30,Kastamonu,4,1426
89,2018-03-31,Kahramanmaraş,13,1258
90,2018-04-01,Ağrı,7,1122
91,2018-04-02,Kastamonu,9,1248
92,2018-04-03,Karabük,4,1082
93,2018-04-04,Adana,6,1187
94,2018-04-05,Hakkari,7,1877
95,2018-04-06,Elazığ,13,1875
96,2018-04-07,Kocaeli,5,1131
97,2018-04-08,Bolu,7,1223
98,2018-04-09,Muş,1,1806
99,2018-04-10,Gümüşhane,2,1327
100,2018-04-11,Edirne,5,1608
101,2018-04-12,İstanbul,2,1953
102,2018-04-13,Sivas,10,1576
103,2018-04-14,Karabük,17,1501
104,2018-04-15,Ankara,4,1782
105,2018-04-16,Yozgat,5,1637
106,2018-04-17,Yozgat,15,1526
107,2018-04-18,Rize,16,1650
108,2018-04-19,Manisa,16,1729
109,2018-04-20,Şanlıurfa,12,1008
110,2018-04-21,Amasya,10,1846
111,2018-04-22,Kars,17,1626
112,2018-04-23,Zonguldak,9,1385
113,2018-04-24,Manisa,16,1085
114,2018-04-25,Siirt,10,1444
115,2018-04-26,Malatya,5,1080
116,2018-04-27,Gaziantep,13,1573
117,2018-04-28,Muş,10,1836
118,2018-04-29,Kırıkkale,3,1418
119,2018-04-30,Samsun,14,1125
120,2018-05-01,Yozgat,11,1719
121,2018-05-02,Edirne,15,1678
122,2018-05-03,Bilecik,9,1027
123,2018-05-04,Amasya,8,1719
124,2018-05-05,Karabük,8,1369
125,2018-05-06,Kırklareli,5,1843
126,2018-05-07,Kars,13,1058
127,2018-05-08,Rize,10,1432
128,2018-05-09,Malatya,1,1582
129,2018-05-10,Bursa,16,1001
130,2018-05-11,Balıkesir,7,1762
131,2018-05-12,Konya,3,1221
132,2018-05-13,Ankara,4,1379
133,2018-05-14,Kahramanmaraş,15,1735
134,2018-05-15,Kahramanmaraş,10,1028
135,2018-05-16,Muğla,8,1060
136,2018-05-17,Manisa,13,1914
137,2018-05-18,Bartın,12,1305
138,2018-05-19,Bartın,12,1629
139,2018-05-20,Hakkari,10,1708
140,2018-05-21,İstanbul,9,1316
141,2018-05-22,Sakarya,1,1227
142,2018-05-23,Düzce,4,1450
143,2018-05-24,Şırnak,16,1275
144,2018-05-25,Adana,6,1815
145,2018-05-26,Çanakkale,3,1573
146,2018-05-27,Nevşehir,14,1599
147,2018-05-28,Iğdır,14,1883
148,2018-05-29,Van,4,1049
149,2018-05-30,Adıyaman,7,1575
150,2018-05-31,Karabük,14,1037
151,2018-06-01,Artvin,16,1211
152,2018-06-02,Çanakkale,16,1963
153,2018-06-03,Tekirdağ,17,1216
154,2018-06-04,Bitlis,15,1381
155,2018-06-05,Çankırı,17,1529
156,2018-06-06,Tunceli,14,1942
157,2018-06-07,Tekirdağ,17,1173
158,2018-06-08,Muş,17,1583
159,2018-06-09,Muğla,17,1748
160,2018-06-10,Hatay,2,1020
161,2018-06-11,Bartın,2,1698
162,2018-06-12,Eskişehir,17,1546
163,2018-06-13,Gümüşhane,9,1233
164,2018-06-14,Isparta,12,1753
165,2018-06-15,Bingöl,16,1809
166,2018-06-16,Sinop,6,1235
167,2018-06-17,Bingöl,15,1634
168,2018-06-18,Muş,14,1369
169,2018-06-19,Batman,3,1251
170,2018-06-20,Nevşehir,13,1348
171,2018-06-21,Zonguldak,9,1588
172,2018-06-22,Kayseri,2,1395
173,2018-06-23,Bitlis,3,1816
174,2018-06-24,Elazığ,1,1052
175,2018-06-25,Samsun,17,1339
176,2018-06-26,Kayseri,14,1651
177,2018-06-27,Şanlıurfa,17,1504
178,2018-06-28,Ağrı,1,1138
179,2018-06-29,Diyarbakır,14,1731
180,2018-06-30,Çorum,17,1605
181,2018-07-01,Kilis,15,1297
182,2018-07-02,Bolu,10,1184
183,2018-07-03,Karaman,12,1944
184,2018-07-04,Kayseri,17,1574
185,2018-07-05,Kars,3,1381
186,2018-07-06,Gaziantep,6,1950
187,2018-07-07,Malatya,15,1509
188,2018-07-08,Bilecik,12,1658
189,2018-07-09,Yalova,2,1062
190,2018-07-10,Bitlis,15,1324
191,2018-07-11,Bilecik,5,1212
192,2018-07-12,Karabük,7,1665
193,2018-07-13,Samsun,14,1774
194,2018-07-14,Trabzon,16,1468
195,2018-07-15,Amasya,2,1051
196,2018-07-16,Niğde,17,1652
197,2018-07-17,Isparta,9,1266
198,2018-07-18,Bolu,2,1614
199,2018-07-19,Ağrı,3,1162
200,2018-07-20,Tokat,11,1531
201,2018-07-21,Nevşehir,11,1849
202,2018-07-22,İzmir,1,1934
203,2018-07-23,Tokat,9,1474
204,2018-07-24,Bayburt,1,1769
205,2018-07-25,Karaman,12,1413
206,2018-07-26,Kırşehir,8,1660
207,2018-07-27,Kastamonu,10,1931
208,2018-07-28,Ankara,2,1005
209,2018-07-29,Nevşehir,5,1590
210,2018-07-30,Eskişehir,3,1548
211,2018-07-31,Çankırı,6,1450
212,2018-08-01,Antalya,15,1162
213,2018-08-02,Hakkari,12,1626
214,2018-08-03,Erzurum,9,1085
215,2018-08-04,Sakarya,3,1463
216,2018-08-05,Kırşehir,5,1388
217,2018-08-06,Denizli,14,1640
218,2018-08-07,Giresun,16,1500
219,2018-08-08,Kahramanmaraş,6,1571
220,2018-08-09,Düzce,15,1475
221,2018-08-10,Bitlis,11,1087
222,2018-08-11,Ardahan,2,1762
223,2018-08-12,Hatay,10,1980
224,2018-08-13,Antalya,12,1073
225,2018-08-14,Erzurum,1,1768
226,2018-08-15,Sakarya,6,1269
227,2018-08-16,Kütahya,17,1147
228,2018-08-17,Çorum,8,1626
229,2018-08-18,Karaman,2,1332
230,2018-08-19,Zonguldak,8,1167
231,2018-08-20,Eskişehir,8,1249
232,2018-08-21,Karabük,13,1631
233,2018-08-22,Sivas,8,1400
234,2018-08-23,Artvin,4,1252
235,2018-08-24,Yozgat,7,1383
236,2018-08-25,Adıyaman,16,1561
237,2018-08-26,İçel (Mersin),3,1629
238,2018-08-27,Amasya,3,1647
239,2018-08-28,Karaman,12,1590
240,2018-08-29,Yalova,6,1355
241,2018-08-30,Sinop,17,1220
242,2018-08-31,Sivas,4,1286
243,2018-09-01,Çanakkale,14,1704
244,2018-09-02,Sakarya,12,1915
245,2018-09-03,Sivas,1,1489
246,2018-09-04,Adana,12,1096
247,2018-09-05,Tunceli,9,1656
248,2018-09-06,Aydın,9,1883
249,2018-09-07,Van,16,1400
250,2018-09-08,Çankırı,7,1032
251,2018-09-09,Çankırı,6,1860
252,2018-09-10,Bilecik,6,1484
253,2018-09-11,Şırnak,11,1511
254,2018-09-12,Tekirdağ,7,1728
255,2018-09-13,Artvin,11,1379
256,2018-09-14,Adana,13,1152
257,2018-09-15,Burdur,9,1381
258,2018-09-16,Çanakkale,17,1730
259,2018-09-17,Çankırı,4,1860
260,2018-09-18,Düzce,13,1251
261,2018-09-19,Yozgat,6,1162
262,2018-09-20,Kars,4,1921
263,2018-09-21,Samsun,8,1983
264,2018-09-22,Şanlıurfa,7,1284
265,2018-09-23,Batman,14,1067
266,2018-09-24,Adıyaman,7,1863
267,2018-09-25,Siirt,13,1984
268,2018-09-26,Manisa,1,1572
269,2018-09-27,Ankara,16,1771
270,2018-09-28,Yalova,17,1789
271,2018-09-29,Gaziantep,6,1010
272,2018-09-30,Adıyaman,16,1474
273,2018-10-01,Nevşehir,10,1055
274,2018-10-02,Çanakkale,12,1234
275,2018-10-03,Isparta,11,1176
276,2018-10-04,Sinop,4,1758
277,2018-10-05,Siirt,3,1070
278,2018-10-06,Ağrı,5,1836
279,2018-10-07,Osmaniye,9,1235
280,2018-10-08,Eskişehir,14,1345
281,2018-10-09,Kastamonu,2,1195
282,2018-10-10,Karabük,15,1502
283,2018-10-11,Uşak,1,1896
284,2018-10-12,Kilis,7,1781
285,2018-10-13,Niğde,14,1046
286,2018-10-14,Tunceli,16,1284
287,2018-10-15,Kayseri,3,1578
288,2018-10-16,Erzincan,1,1616
289,2018-10-17,Bilecik,15,1299
290,2018-10-18,Siirt,4,1330
291,2018-10-19,Mardin,10,1180
292,2018-10-20,Denizli,16,1504
293,2018-10-21,Erzurum,9,1522
294,2018-10-22,Edirne,1,1145
295,2018-10-23,Karabük,7,1881
296,2018-10-24,Karaman,10,1504
297,2018-10-25,Niğde,2,1320
298,2018-10-26,Çankırı,17,1164
299,2018-10-27,Karabük,14,1188
300,2018-10-28,Kırklareli,1,1668
301,2018-10-29,Samsun,9,1183
302,2018-10-30,Malatya,3,1882
303,2018-10-31,Ordu,11,1356
304,2018-11-01,Karabük,8,1525
305,2018-11-02,Sinop,16,1884
306,2018-11-03,Yalova,10,1703
307,2018-11-04,Afyon,6,1608
308,2018-11-05,Kütahya,3,1852
309,2018-11-06,Nevşehir,15,1546
310,2018-11-07,Kırklareli,13,1125
311,2018-11-08,Çorum,12,1847
312,2018-11-09,Isparta,3,1796
313,2018-11-10,Şırnak,2,1368
314,2018-11-11,Çankırı,2,1486
315,2018-11-12,Muğla,9,1649
316,2018-11-13,Bolu,10,1770
317,2018-11-14,Bitlis,17,1766
318,2018-11-15,Erzurum,16,1715
319,2018-11-16,Zonguldak,5,1636
320,2018-11-17,Denizli,16,1594
321,2018-11-18,Bingöl,17,1326
322,2018-11-19,Van,4,1019
323,2018-11-20,Kırşehir,16,1081
324,2018-11-21,Karabük,16,1027
325,2018-11-22,İzmir,5,1642
326,2018-11-23,Bingöl,11,1157
327,2018-11-24,Kırıkkale,1,1917
328,2018-11-25,Denizli,10,1392
329,2018-11-26,Bolu,16,1359
330,2018-11-27,Ağrı,15,1505
331,2018-11-28,Kahramanmaraş,14,1027
332,2018-11-29,Bartın,2,1685
333,2018-11-30,Siirt,11,1667
334,2018-12-01,Bitlis,11,1294
335,2018-12-02,Ağrı,4,1473
336,2018-12-03,Bitlis,3,1001
337,2018-12-04,Giresun,3,1723
338,2018-12-05,İçel (Mersin),11,1529
339,2018-12-06,Ordu,11,1714
340,2018-12-07,Malatya,14,1136
341,2018-12-08,Bolu,7,1058
342,2018-12-09,Giresun,13,1000
343,2018-12-10,Hakkari,8,1047
344,2018-12-11,Gaziantep,1,1194
345,2018-12-12,Sakarya,10,1758
346,2018-12-13,Çanakkale,5,1904
347,2018-12-14,Burdur,9,1361
348,2018-12-15,Adana,3,1035
349,2018-12-16,Kırşehir,15,1445
350,2018-12-17,Edirne,1,1577
351,2018-12-18,Iğdır,3,1619
352,2018-12-19,Karabük,3,1382
353,2018-12-20,Çorum,13,1508
354,2018-12-21,Sivas,10,1971
355,2018-12-22,Malatya,6,1687
356,2018-12-23,İzmir,13,1881
357,2018-12-24,Şırnak,9,1067
358,2018-12-25,Gümüşhane,2,1753
359,2018-12-26,Kocaeli,12,1498
360,2018-12-27,Uşak,9,1610
361,2018-12-28,Kahramanmaraş,15,1918
362,2018-12-29,Şırnak,17,1694
363,2018-12-30,Kastamonu,8,1185
